<?xml version="1.0" encoding="UTF-8" standalone="no"?>
<svg
   xmlns:dc="http://purl.org/dc/elements/1.1/"
   xmlns:cc="http://creativecommons.org/ns#"
   xmlns:rdf="http://www.w3.org/1999/02/22-rdf-syntax-ns#"
   xmlns:svg="http://www.w3.org/2000/svg"
   xmlns="http://www.w3.org/2000/svg"
   xmlns:sodipodi="http://sodipodi.sourceforge.net/DTD/sodipodi-0.dtd"
   xmlns:inkscape="http://www.inkscape.org/namespaces/inkscape"
   viewBox="0 0 51 36"
   x="0px"
   y="0px"
   version="1.1"
   id="svg20"
   sodipodi:docname="computer.svg"
   width="51"
   height="36"
   inkscape:version="1.0.2 (e86c870879, 2021-01-15)">
  <metadata
     id="metadata26">
    <rdf:RDF>
      <cc:Work
         rdf:about="">
        <dc:format>image/svg+xml</dc:format>
        <dc:type
           rdf:resource="http://purl.org/dc/dcmitype/StillImage" />
        <dc:title>20 House</dc:title>
      </cc:Work>
    </rdf:RDF>
  </metadata>
  <defs
     id="defs24" />
  <sodipodi:namedview
     pagecolor="#ffffff"
     bordercolor="#666666"
     borderopacity="1"
     objecttolerance="10"
     gridtolerance="10"
     guidetolerance="10"
     inkscape:pageopacity="0"
     inkscape:pageshadow="2"
     inkscape:window-width="2540"
     inkscape:window-height="1363"
     id="namedview22"
     showgrid="true"
     inkscape:zoom="5.6568543"
     inkscape:cx="-18.513493"
     inkscape:cy="-39.287203"
     inkscape:window-x="10"
     inkscape:window-y="38"
     inkscape:window-maximized="0"
     inkscape:current-layer="svg20"
     inkscape:document-rotation="0"
     fit-margin-top="0"
     fit-margin-left="0"
     fit-margin-right="0"
     fit-margin-bottom="0"
     showguides="false">
    <inkscape:grid
       type="xygrid"
       id="grid836"
       originx="0.50000189"
       originy="-79.5"
       dotted="false" />
  </sodipodi:namedview>
  <title
     id="title2">20 House</title>
  <path
     style="fill:none;stroke:#000000;stroke-width:1;stroke-linecap:butt;stroke-linejoin:miter;stroke-miterlimit:4;stroke-dasharray:none;stroke-opacity:1"
     d="m 17.112247,8.6965991 c 0,0 -8.2653063,0 -11.0204085,0 -2.755102,0 -2.755102,0 -2.755102,3.6861999 0,3.6862 0,7.372401 0,11.058601 0,3.6862 0,3.6862 2.755102,3.6862 2.7551022,0 19.2857145,0 22.0408165,0 2.755102,0 2.755102,0 2.755102,-3.6862 0,-3.6862 0,-7.372401 0,-11.058601 0,-3.6861999 0,-3.6861999 -2.755102,-3.6861999 -2.755102,0 -11.020408,0 -11.020408,0 z"
     id="path838" />
  <path
     style="fill:none;stroke:#000000;stroke-width:1;stroke-linecap:butt;stroke-linejoin:round;stroke-miterlimit:4;stroke-dasharray:none;stroke-opacity:1"
     d="M 17.112247,6.2391317 H 4.2551038 c -2.755102,0 -2.755102,0 -2.755102,3.6862 V 25.898867 c 0,3.6862 0,3.6862 2.755102,3.6862 H 14.357145 c 1.836734,0 1.774308,1.982677 0,2.457466 -4.591837,1.228734 0,0 -4.591837,1.228734 v 1.228734 h 14.693878 v -1.228734 c -4.591837,-1.228734 0,0 -4.591837,-1.228734 -1.774309,-0.474789 -1.836735,-2.457466 0,-2.457466 H 29.96939 c 2.755102,0 2.755102,0 2.755102,-3.6862 V 9.9253317 c 0,-3.6862 0,-3.6862 -2.755102,-3.6862 z"
     id="path844"
     sodipodi:nodetypes="cssssssccccssssssc" />
  <path
     style="fill:none;stroke:#000000;stroke-width:1;stroke-linecap:butt;stroke-linejoin:miter;stroke-miterlimit:4;stroke-dasharray:none;stroke-opacity:1"
     d="m 35.479594,17.108697 c 0,0 0,-4.347826 0,-7.6086958 0,-3.2608695 0,-3.2608695 2.755102,-3.2608695 2.755102,0 5.510204,0 8.265306,0 2.755102,0 2.755102,0 2.755102,3.2608695 0,3.2608698 0,18.4782608 0,21.7391298 0,3.26087 0,3.26087 -2.755102,3.26087 -2.755102,0 -5.510204,0 -8.265306,0 -2.755102,0 -2.755102,0 -2.755102,-3.26087 0,-3.260869 0,-14.130434 0,-14.130434"
     id="path846" />
  <path
     style="fill:none;stroke:#000000;stroke-width:1;stroke-linecap:round;stroke-linejoin:round;stroke-miterlimit:4;stroke-dasharray:none;stroke-opacity:1"
     d="m 38.234696,9.5000012 h 8.265306"
     id="path848" />
  <path
     style="fill:none;stroke:#000000;stroke-width:1;stroke-linecap:round;stroke-linejoin:round;stroke-miterlimit:4;stroke-dasharray:none;stroke-opacity:1"
     d="m 38.234696,11.673914 h 8.265306"
     id="path850" />
  <path
     style="fill:none;stroke:#000000;stroke-width:1;stroke-linecap:round;stroke-linejoin:round;stroke-miterlimit:4;stroke-dasharray:none;stroke-opacity:1"
     d="m 38.234696,13.847827 h 8.265306"
     id="path852" />
  <path
     style="fill:none;stroke:#000000;stroke-width:1;stroke-linecap:round;stroke-linejoin:round;stroke-miterlimit:4;stroke-dasharray:none;stroke-opacity:1"
     d="m 40.071431,16.02174 h 4.591836"
     id="path854" />
  <circle
     style="fill:none;stroke:#000000;stroke-width:0.960115;stroke-linecap:round;stroke-linejoin:round;stroke-miterlimit:4;stroke-dasharray:none;stroke-opacity:1;paint-order:stroke fill markers"
     id="path856"
     sodipodi:type="arc"
     sodipodi:cx="42.367275"
     sodipodi:cy="28.010885"
     sodipodi:rx="0.45918366"
     sodipodi:ry="0.50098926"
     sodipodi:start="3.1234412"
     sodipodi:end="2.9754024"
     sodipodi:open="true"
     sodipodi:arc-type="arc"
     d="m 41.908167,28.019978 a 0.45918366,0.50098926 0 0 1 0.433792,-0.50932 0.45918366,0.50098926 0 0 1 0.482551,0.454116 0.45918366,0.50098926 0 0 1 -0.398082,0.542926 0.45918366,0.50098926 0 0 1 -0.51201,-0.413938" />
</svg>
